{
	"meta": {
		"limit": 20,
		"next": "/api/v1/catasto2010/?offset=20&limit=20&format=json",
		"offset": 0,
		"previous": null,
		"total_count": 2179435
	},
	"objects": [
		{
			"belfiore": "/api/v1/belfiore/A657/",
			"codbo": "57",
			"foglio": "54",
			"gid": 292025,
			"the_geom": "MULTIPOLYGON (((617550.5909097425173968 4877860.0111836940050125, 617555.1588270622305572 4877859.0652203625068069, 617554.2098638173192739 4877854.4833034100010991, 617549.6679454884724692 4877855.5552644571289420, 617550.5909097425173968 4877860.0111836940050125)))"
		}, {
			"belfiore": "/api/v1/belfiore/A657/",
			"codbo": "34",
			"foglio": "54",
			"gid": 292026,
			"the_geom": "MULTIPOLYGON (((617535.5129188897553831 4877927.5098411971703172, 617541.0568215876119211 4877925.6188997961580753, 617544.5707127822097391 4877935.9237186759710312, 617556.3345063154119998 4877931.9108430258929729, 617554.2425710952375084 4877925.7749508712440729, 617555.0375571378972381 4877925.5049592535942793, 617552.7516279207775369 4877918.8010770818218589, 617547.2067252377746627 4877920.6930184634402394, 617544.5728067982709035 4877912.9681542376056314, 617538.5959119893377647 4877914.9360924027860165, 617538.3879184423713014 4877914.3231031810864806, 617531.9370318000437692 4877916.4900356307625771, 617535.5129188897553831 4877927.5098411971703172)))"
		}, {
			"belfiore": "/api/v1/belfiore/A657/",
			"codbo": "33",
			"foglio": "54",
			"gid": 292027,
			"the_geom": "MULTIPOLYGON (((617531.4371767544653267 4877883.4236609758809209, 617532.6981490456964821 4877884.3546484792605042, 617533.6641352936858311 4877883.2436735164374113, 617532.5141608087578788 4877882.3346860520541668, 617531.4371767544653267 4877883.4236609758809209)))"
		}, {
			"belfiore": "/api/v1/belfiore/A657/",
			"codbo": "83",
			"foglio": "54",
			"gid": 292028,
			"the_geom": "MULTIPOLYGON (((617831.0977574365679175 4877820.2410878241062164, 617832.7547255964018404 4877820.3490925654768944, 617832.9027294986881316 4877818.7121242303401232, 617831.2237619441002607 4877818.5581202721223235, 617831.0977574365679175 4877820.2410878241062164)))"
		}, {
			"belfiore": "/api/v1/belfiore/A657/",
			"codbo": "28",
			"foglio": "54",
			"gid": 292029,
			"the_geom": "MULTIPOLYGON (((617333.0595939030172303 4877966.8572649285197258, 617343.9893182211089879 4877983.5939921606332064, 617376.4307915841927752 4877962.0955330245196819, 617363.9381082231411710 4877942.5908519020304084, 617338.4495259097311646 4877958.5254451036453247, 617333.0595939030172303 4877966.8572649285197258)))"
		}, {
			"belfiore": "/api/v1/belfiore/A657/",
			"codbo": "30",
			"foglio": "54",
			"gid": 292030,
			"the_geom": "MULTIPOLYGON (((617411.6522014330839738 4877943.2420350909233093, 617451.0884944859426469 4877933.4013834260404110, 617448.7895770905306563 4877923.8725547995418310, 617409.4192833075067028 4877933.5862091472372413, 617411.6522014330839738 4877943.2420350909233093)))"
		}, {
			"belfiore": "/api/v1/belfiore/A657/",
			"codbo": "81",
			"foglio": "54",
			"gid": 292031,
			"the_geom": "MULTIPOLYGON (((617830.3507104145828635 4877835.1728014526888728, 617833.5806488343514502 4877835.2648129435256124, 617833.6316552506759763 4877833.4628473408520222, 617830.4127162214135751 4877833.4688340378925204, 617830.3507104145828635 4877835.1728014526888728)))"
		}, {
			"belfiore": "/api/v1/belfiore/A657/",
			"codbo": "41",
			"foglio": "54",
			"gid": 292032,
			"the_geom": "MULTIPOLYGON (((617714.4295504812616855 4877922.1816755160689354, 617714.9665369546273723 4877922.9996621971949935, 617715.8135208638850600 4877923.0096654770895839, 617716.5125110649969429 4877922.1686842972412705, 617716.1945219007320702 4877920.9947052709758282, 617715.4895362139213830 4877920.7617068039253354, 617714.6925502300728112 4877921.0266985073685646, 617714.4295504812616855 4877922.1816755160689354)))"
		}, {
			"belfiore": "/api/v1/belfiore/A657/",
			"codbo": "80",
			"foglio": "54",
			"gid": 292033,
			"the_geom": "MULTIPOLYGON (((617825.3807980860583484 4877836.7597509762272239, 617825.3257917128503323 4877838.5697164060547948, 617827.1147574782371521 4877838.6517221815884113, 617827.1357649709098041 4877836.7257588105276227, 617825.3807980860583484 4877836.7597509762272239)))"
		}, {
			"belfiore": "/api/v1/belfiore/A657/",
			"codbo": "6",
			"foglio": "54",
			"gid": 292034,
			"the_geom": "MULTIPOLYGON (((617500.9231524167116731 4878030.4807456992566586, 617504.0260978894075379 4878029.4387781852856278, 617503.1151281272759661 4878026.2718345401808619, 617499.8351860367693007 4878027.3068014625459909, 617500.9231524167116731 4878030.4807456992566586)))"
		}, {
			"belfiore": "/api/v1/belfiore/A657/",
			"codbo": "21",
			"foglio": "54",
			"gid": 292035,
			"the_geom": "MULTIPOLYGON (((617676.5321051578503102 4877962.0697633838281035, 617736.5958664271747693 4877986.6235436536371708, 617740.1588362179463729 4877977.5187310073524714, 617680.3460693899542093 4877953.1609480474144220, 617676.5321051578503102 4877962.0697633838281035)))"
		}, {
			"belfiore": "/api/v1/belfiore/A657/",
			"codbo": "96",
			"foglio": "54",
			"gid": 292036,
			"the_geom": "MULTIPOLYGON (((617465.4920274652540684 4877980.7715436639264226, 617466.0520107704214752 4877982.2565177837386727, 617467.9409776401007548 4877981.6065378570929170, 617469.0759577355347574 4877981.2155499253422022, 617468.0309893812518567 4877978.3246004972606897, 617465.0340411133365706 4877979.5585648007690907, 617465.4920274652540684 4877980.7715436639264226)))"
		}, {
			"belfiore": "/api/v1/belfiore/A657/",
			"codbo": "86",
			"foglio": "54",
			"gid": 292037,
			"the_geom": "MULTIPOLYGON (((617850.4644398064119741 4877808.1973957046866417, 617851.5194201068952680 4877808.1264013713225722, 617851.4534253806341439 4877807.1444197334349155, 617850.4384443305898458 4877807.2134142667055130, 617850.4644398064119741 4877808.1973957046866417)))"
		}, {
			"belfiore": "/api/v1/belfiore/A657/",
			"codbo": "X1",
			"foglio": "54",
			"gid": 292038,
			"the_geom": "MULTIPOLYGON (((617737.0875969945918769 4877806.0399720175191760, 617740.8065532667096704 4877799.5131110940128565, 617745.6795023606391624 4877789.4013229254633188, 617744.6655282686697319 4877787.7673497721552849, 617743.6135505866259336 4877787.1853565024212003, 617741.1835937757277861 4877787.8823333214968443, 617733.3726683631539345 4877805.8019613064825535, 617737.0875969945918769 4877806.0399720175191760)))"
		}, {
			"belfiore": "/api/v1/belfiore/A657/",
			"codbo": "36",
			"foglio": "54",
			"gid": 292039,
			"the_geom": "MULTIPOLYGON (((617562.3723265434382483 4877947.8635650845244527, 617566.9272386602824554 4877948.2475764648988843, 617668.1733296290040016 4877945.9410351496189833, 617667.9433737575309351 4877936.2342183822765946, 617567.1432745347265154 4877938.4927624361589551, 617562.2823633076623082 4877939.3067270722240210, 617562.3723265434382483 4877947.8635650845244527)))"
		}, {
			"belfiore": "/api/v1/belfiore/A657/",
			"codbo": "45",
			"foglio": "54",
			"gid": 292040,
			"the_geom": "MULTIPOLYGON (((617773.5562637187540531 4877962.7921472918242216, 617782.7940813158638775 4877964.5881510740146041, 617787.3020848146406934 4877942.8855813220143318, 617777.9832692069467157 4877940.9785793181508780, 617773.5562637187540531 4877962.7921472918242216)))"
		}, {
			"belfiore": "/api/v1/belfiore/A657/",
			"codbo": "9",
			"foglio": "54",
			"gid": 292041,
			"the_geom": "MULTIPOLYGON (((617506.7551015566568822 4878015.9230458149686456, 617556.9551760164322332 4878009.6543704830110073, 617555.9062379830284044 4877999.3815610967576504, 617505.4221688678953797 4878005.6592350928112864, 617506.7551015566568822 4878015.9230458149686456)))"
		}, {
			"belfiore": "/api/v1/belfiore/A657/",
			"codbo": "54",
			"foglio": "54",
			"gid": 292042,
			"the_geom": "MULTIPOLYGON (((617907.8457466473337263 4877956.0718251205980778, 617911.0756932612275705 4877954.1638745563104749, 617909.3227370231179520 4877951.5899162124842405, 617906.2267870550276712 4877953.6968635497614741, 617907.8457466473337263 4877956.0718251205980778)))"
		}, {
			"belfiore": "/api/v1/belfiore/A657/",
			"codbo": "40",
			"foglio": "54",
			"gid": 292043,
			"the_geom": "MULTIPOLYGON (((617706.1046632532961667 4877933.1584331290796399, 617709.1236020778305829 4877934.1274271169677377, 617706.4386066857259721 4877945.4202018463984132, 617712.3484881747281179 4877947.0131958425045013, 617717.8164747739210725 4877924.9956360040232539, 617708.8586537155788392 4877922.7496419092640281, 617706.1046632532961667 4877933.1584331290796399)))"
		}, {
			"belfiore": "/api/v1/belfiore/A657/",
			"codbo": "44",
			"foglio": "54",
			"gid": 292044,
			"the_geom": "MULTIPOLYGON (((617767.4164458396844566 4877946.7374267466366291, 617774.8452979887370020 4877948.4664243850857019, 617776.6452955803833902 4877940.7295785574242473, 617769.1884439820423722 4877938.9955809013918042, 617767.4164458396844566 4877946.7374267466366291)))"
		}
	]
}